{
	"A1390028": {
        "precio_cama": "3",
		"unidad": "MTS",
		"cantidad": "190.0",
		"parametrosExtra": {
			"ancho": "6.2",
			"largo": "38.0",
			"rollos": "5.0"
		}
	},
	"Y07201240BC50": {
        "precio_cama": "3",        
		"unidad": "MTS",
		"cantidad": "2.0",
		"parametrosExtra": {
			"ancho": "12.4",
			"largo": "200",
			"rollos": "2.0"
		}
	},
	"A2001369": {
        "precio_cama": "3",        
		"unidad": "ROL",
		"rollos": "5.0"
	},
	"A3014415": {
        "precio_cama": "3",        
		"unidad": "ROL",
		"rollos": "3.0",
		"parametrosExtra": {
			"ancho": "3.7",
			"largo": "100",
			"uniones": "2",
			"costura": "SI",
			"ojillos": "SI",
			"numeroOjillos": "2"
		}
	},
	"A3003054": {
        "precio_cama": "3",        
		"unidad": "M2",
		"cantidad": "2.0",
		"parametrosExtra": {
			"ancho": "5.0",
			"largo": "100.0",
			"uniones": "1"
		}
	},
	"A4000381": {
        "precio_cama": "3",        
		"unidad": "KG",
		"cantidad": "8.0"
	},
	"A4000100": {
        "precio_cama": "3",
		"unidad": "CJ",
		"cantidad": "6.0"
	},
	"A5012598": {
        "precio_cama": "3",
		"unidad": "PZA",
		"cantidad": "30.0"
	},
	"A7400032": {
        "precio_cama": "3",
		"unidad": "PZA",
		"cantidad": "96.0"
	},
	"A8000191": {
        "precio_cama": "3",
		"unidad": "ROL",
		"cantidad": "3.0"
	},
	"A6050052": {
        "precio_cama": "3",
		"unidad": "ROL",
		"cantidad": "2.0"
	},
	"A8200031": {
        "precio_cama": "3",
		"unidad": "PZA",
		"cantidad": "2.0"
	},
	"A6075020": {
        "precio_cama": "3",
		"unidad": "PZA",
		"cantidad": "4.0"
	},
	"E2018700": {
        "precio_cama": "3",
		"unidad": "MIL",
		"cantidad": "2.0"
	},
	"E2003000": {
        "precio_cama": "3",
		"unidad": "ROL",
		"cantidad": "2.0"
	}
}